…
The output is in the `tibble` class. If you have no experience with it, don't
worry, just take it as a table. As you can see, The three major gene IDs type
`"gene_symbol"`, `"entrez_gene"` and `"ensembl_gene"` are all included in the
table. So users can easily pick one with the same gene ID type as in the DE gene
list. For example:


```r
MSigDBGeneSets[, c("gs_name", "ensembl_gene")]
```

```{.output}
# A tibble: 7,384 × 2
   gs_name               ensembl_gene      
   <chr>                 <chr>             
 1 HALLMARK_ADIPOGENESIS ENSMUSG00000015243
 2 HALLMARK_ADIPOGENESIS ENSMUSG00000028973
 3 HALLMARK_ADIPOGENESIS ENSMUSG00000036880
 4 HALLMARK_ADIPOGENESIS ENSMUSG00000026003
 5 HALLMARK_ADIPOGENESIS ENSMUSG00000062908
 6 HALLMARK_ADIPOGENESIS ENSMUSG00000029545
 7 HALLMARK_ADIPOGENESIS ENSMUSG00000020917
 8 HALLMARK_ADIPOGENESIS ENSMUSG00000022477
 9 HALLMARK_ADIPOGENESIS ENSMUSG00000020777
10 HALLMARK_ADIPOGENESIS ENSMUSG00000022994
# ℹ 7,374 more rows
```

```r
# or put genes in the first column
MSigDBGeneSets[, c("ensembl_gene", "gs_name")]
```

```{.output}
# A tibble: 7,384 × 2
   ensembl_gene       gs_name              
   <chr>              <chr>                
 1 ENSMUSG00000015243 HALLMARK_ADIPOGENESIS
 2 ENSMUSG00000028973 HALLMARK_ADIPOGENESIS
 3 ENSMUSG00000036880 HALLMARK_ADIPOGENESIS
 4 ENSMUSG00000026003 HALLMARK_ADIPOGENESIS
 5 ENSMUSG00000062908 HALLMARK_ADIPOGENESIS
 6 ENSMUSG00000029545 HALLMARK_ADIPOGENESIS
 7 ENSMUSG00000020917 HALLMARK_ADIPOGENESIS
 8 ENSMUSG00000022477 HALLMARK_ADIPOGENESIS
 9 ENSMUSG00000020777 HALLMARK_ADIPOGENESIS
10 ENSMUSG00000022994 HALLMARK_ADIPOGENESIS
# ℹ 7,374 more rows
```
…
